<?xml version="1.0" standalone="no"?>
<!DOCTYPE svg PUBLIC "-//W3C//DTD SVG 1.1//EN" "http://www.w3.org/Graphics/SVG/1.1/DTD/svg11.dtd" >
<svg xmlns="http://www.w3.org/2000/svg" xmlns:xlink="http://www.w3.org/1999/xlink" version="1.1">
<metadata></metadata>
<defs>
<font id="fedra_sans_light" horiz-adv-x="614" >
<font-face units-per-em="2048" ascent="1638" descent="-410" />
<missing-glyph horiz-adv-x="500" />
<glyph horiz-adv-x="0" />
<glyph unicode="&#xd;" />
<glyph unicode=" " />
<glyph unicode="!" horiz-adv-x="555" d="M188 0v145h142v-145h-142zM203 584v864h112l-4 -1122h-102z" />
<glyph unicode="&#x22;" horiz-adv-x="632" d="M102 1542h105l-10 -487h-88zM426 1542h104l-10 -487h-88z" />
<glyph unicode="#" horiz-adv-x="1161" d="M82 336v106h186l31 572h-217v104h221l19 330h108l-16 -330h372l19 330h108l-18 -330h184v-104h-188l-31 -572h219v-106h-225l-18 -336h-109l18 336h-374l-19 -336h-108l18 336h-180zM379 442h371l30 572h-372z" />
<glyph unicode="$" horiz-adv-x="1071" d="M102 63l45 105q158 -74 332 -74q147 0 246 53q127 68 127 211q0 162 -184 271l-344 176q-184 123 -185 319q0 139 90 228q84 80 228 98l-2 188h120l-4 -182q170 -2 297 -57l-32 -94q-131 49 -291 49q-295 0 -295 -221q0 -147 186 -254q172 -92 346 -185 q187 -126 187 -323q0 -170 -113 -271q-104 -94 -285 -112l7 -191h-123l2 187q-213 4 -355 79z" />
<glyph unicode="%" horiz-adv-x="1540" d="M92 1124q0 160 90 252q82 86 207 86q295 1 295 -321q0 -152 -86 -241t-215 -89q-131 0 -207 74q-84 80 -84 239zM182 201l1067 1089l64 -67l-1067 -1092zM197 1124q0 -223 186 -223q92 0 146.5 64.5t54.5 175.5q0 238 -195 237q-86 0 -139 -65.5t-53 -188.5zM856 297 q0 160 90 252q82 86 207 86q295 0 295 -322q0 -152 -86 -240.5t-215 -88.5q-131 0 -207 73q-84 80 -84 240zM961 297q0 -223 186 -223q92 0 146.5 64t54.5 175q0 238 -195 238q-86 0 -139 -65.5t-53 -188.5z" />
<glyph unicode="&#x26;" horiz-adv-x="1374" d="M109 324q0 154 71 260q51 76 193 192q-68 182 -68 359q0 137 74 221q80 92 231 92q133 0 203 -78q59 -70 59 -184q0 -137 -135 -256l-250 -176q119 -289 370 -471.5t527 -192.5l-8 -96q-258 0 -497 147q-106 -84 -164 -110q-96 -45 -238 -45q-152 0 -248 67 q-121 88 -120 271zM215 334q0 -250 287 -250q137 0 293 113q-256 190 -389 481q-190 -160 -191 -344zM408 1153q0 -150 47 -307q98 70 196 141q119 99 119 193q0 80 -47 128t-121 48q-96 0 -145 -56.5t-49 -146.5z" />
<glyph unicode="'" horiz-adv-x="309" d="M102 1542h105l-10 -487h-88z" />
<glyph unicode="(" horiz-adv-x="677" d="M123 584q0 444 213 762q88 133 213 229l67 -80q-111 -92 -188 -215q-188 -295 -188 -694q0 -401 188 -719q77 -134 188 -240l-67 -80q-125 111 -213 252q-213 342 -213 785z" />
<glyph unicode=")" horiz-adv-x="677" d="M61 -373q111 106 191 240q188 317 188 719q0 399 -188 694q-78 123 -189 215l68 80q123 -96 213 -229q211 -318 211 -762q0 -442 -213 -785q-88 -141 -213 -252z" />
<glyph unicode="*" horiz-adv-x="862" d="M88 1069l207 94l37 -65l-185 -133zM88 1325l62 105l184 -132l-39 -67zM369 838l24 227h76l20 -227h-120zM371 1561h121l-21 -230h-76zM526 1096l41 67l205 -90l-61 -106zM526 1298l187 134l61 -103l-209 -94z" />
<glyph unicode="+" horiz-adv-x="929" d="M92 672v102h324v330h108v-330h326v-102h-326v-328h-108v328h-324z" />
<glyph unicode="," d="M207 -250q14 45 31 88q18 61 18 117v172h119v-53q0 -172 -72 -324h-96z" />
<glyph unicode="-" horiz-adv-x="733" d="M61 535v104h611v-104h-611z" />
<glyph unicode="." d="M242 0v145h141v-145h-141z" />
<glyph unicode="/" horiz-adv-x="1034" d="M0 -309l944 1843l90 -53l-944 -1843z" />
<glyph unicode="0" horiz-adv-x="1239" d="M123 700q0 338 110 531q133 229 410 229q473 0 473 -715q0 -764 -508 -763q-485 0 -485 718zM244 709q0 -625 374 -625q221 0 312 207q65 153 65 442q0 627 -364 627q-387 0 -387 -651z" />
<glyph unicode="1" d="M8 1348v88l402 12v-1448h-113v1348h-289z" />
<glyph unicode="2" horiz-adv-x="974" d="M20 0v106q94 90 191 179q205 203 330 372q176 238 176 392q0 172 -74 243q-66 66 -211 66q-180 0 -309 -94l-51 84q156 117 370 116q391 0 392 -397q0 -215 -197 -471q-139 -182 -469 -490h766v-106h-914z" />
<glyph unicode="3" horiz-adv-x="995" d="M63 47l33 96q152 -53 312 -53t237 43q115 63 115 229q0 143 -123 238q-115 88 -283 100v111q127 10 234.5 104.5t107.5 212.5q0 233 -274 234q-129 0 -240 -47l-39 86q133 61 287 61q174 0 273.5 -85t99.5 -242q0 -135 -98 -246q-86 -96 -191 -121q135 -29 236 -125 q120 -114 120 -274q0 -385 -442 -385q-217 0 -365 63z" />
<glyph unicode="4" horiz-adv-x="1112" d="M49 412v112l578 924h180v-928h266v-108h-266v-412h-115v412h-643zM166 520h526v852z" />
<glyph unicode="5" horiz-adv-x="1050" d="M143 23l29 110q127 -37 305 -37q150 0 246 82t96 225q0 168 -100 259q-90 78 -240 77q-143 0 -284 -16v725h694v-105h-586v-499q74 4 207 4q195 0 308.5 -112.5t113.5 -307.5q0 -213 -124 -328.5t-331 -115.5q-211 0 -334 39z" />
<glyph unicode="6" horiz-adv-x="1130" d="M131 616q0 410 170 635q160 211 432 211q115 0 178 -22l-22 -101q-57 16 -156 17q-489 0 -489 -752q0 -266 69 -385q82 -143 289 -143q141 0 225 106q78 98 78 250q0 166 -88 254q-84 82 -225 82q-45 0 -139 -14l-15 102q84 18 170 18q205 0 314 -124q96 -113 96 -297 q0 -231 -116 -355.5t-314 -124.5q-231 0 -336 131q-121 152 -121 512z" />
<glyph unicode="7" horiz-adv-x="858" d="M0 1341v107h850v-117l-629 -1345l-104 45l618 1310h-735z" />
<glyph unicode="8" horiz-adv-x="1132" d="M115 313q0 250 356 451q-156 100 -215 168q-82 94 -82 225q0 147 106.5 226t303.5 79q184 0 288 -90q90 -82 91 -205q0 -145 -99 -249q-55 -61 -209 -156q178 -104 263 -195q100 -108 100 -233q0 -168 -120 -261t-337 -93q-207 0 -326.5 89t-119.5 244zM233 324 q0 -244 340 -244q324 0 324 262q0 102 -123 209q-59 49 -217 145q-324 -174 -324 -372zM287 1153q0 -96 96 -190q47 -47 180 -138q135 82 197 142q90 90 90 184q0 215 -266 215q-297 0 -297 -213z" />
<glyph unicode="9" horiz-adv-x="1144" d="M123 993q0 221 123 346q117 119 313 119q205 0 328 -166q129 -174 129 -479q0 -463 -160 -659q-147 -182 -475 -183q-66 0 -162 23l25 104q76 -18 137 -18q332 0 442 237q72 154 72 523q0 199 -80 342q-96 168 -270 168q-143 0 -223 -96.5t-80 -243.5q0 -371 311 -371 q66 0 147 16l21 -100q-96 -23 -199 -23q-193 0 -296 121t-103 340z" />
<glyph unicode=":" d="M236 0v145h143v-145h-143zM236 973v145h143v-145h-143z" />
<glyph unicode=";" d="M207 -250q14 45 31 88q18 61 18 117v172h119v-53q0 -172 -72 -324h-96zM236 973v145h143v-145h-143z" />
<glyph unicode="&#x3c;" horiz-adv-x="876" d="M61 631v186l754 326v-117l-696 -303l696 -301v-117z" />
<glyph unicode="=" horiz-adv-x="899" d="M61 473v102h777v-102h-777zM61 877v102h777v-102h-777z" />
<glyph unicode="&#x3e;" horiz-adv-x="876" d="M61 305v117l699 301l-699 303v117l754 -326v-186z" />
<glyph unicode="?" horiz-adv-x="784" d="M184 1350l25 102q190 -16 319 -111q154 -110 154 -294q0 -106 -86 -216q-78 -90 -158 -178q-86 -102 -86 -190q0 14 13 -121l-103 -18q-20 82 -20 137q0 119 84 229q78 84 157 170q84 94 84 174q0 139 -129 230q-106 72 -254 86zM250 0v145h141v-145h-141z" />
<glyph unicode="@" horiz-adv-x="1589" d="M123 535q0 471 242 714q215 215 573 215q246 0 381 -135q147 -145 147 -442q0 -293 -147 -451q-121 -129 -289 -129q-152 0 -139 142q-41 -47 -119 -87t-129 -40q-182 0 -182 249q0 211 106.5 334t284.5 123q111 0 197 -43l-58 -487q-12 -98 37 -99q133 0 215 90 q111 121 111 394q0 479 -422 479q-299 0 -477 -174q-213 -207 -213 -631q0 -317 135 -461q125 -133 375 -133q152 0 299 37l24 -96q-125 -51 -344 -51q-299 0 -457 188q-152 178 -151 494zM565 580q0 -96 21.5 -127t70.5 -31q59 0 138 51q61 39 98 84l43 365q-53 12 -88 12 q-143 0 -217 -103q-66 -92 -66 -251z" />
<glyph unicode="A" horiz-adv-x="1331" d="M29 0l581 1448h168l533 -1448h-131l-207 571h-594l-229 -571h-121zM420 676h516l-246 678z" />
<glyph unicode="B" horiz-adv-x="1310" d="M246 0v1448h368q227 0 344 -100q104 -90 105 -246q0 -127 -59 -215q-41 -63 -105 -99q-25 -10 -47 -18v-6q37 -8 74 -14q94 -33 155 -101q86 -96 86 -246q0 -403 -491 -403h-430zM369 104h272q184 0 279 54q122 69 122 239q0 180 -129 246q-98 49 -346 49h-198v-588z M369 799h241q178 0 256 69q72 64 72 207q0 154 -96 219q-84 57 -271 58h-202v-553z" />
<glyph unicode="C" horiz-adv-x="1308" d="M316.5 1258.5q193.5 205.5 533.5 205.5q213 0 410 -65l-35 -105q-178 59 -371 60q-260 0 -420 -140q-184 -162 -184 -479q0 -330 194 -499q170 -150 451 -150q182 0 340 51l33 -100q-131 -57 -410 -57q-340 0 -543 210q-192 200 -192 522q0 341 193.5 546.5z" />
<glyph unicode="D" horiz-adv-x="1515" d="M246 0v1448h354q354 0 569 -186q224 -195 224 -533q0 -371 -213 -555q-199 -174 -568 -174h-366zM365 104h270q297 0 468 154t171 449q0 315 -191 481q-177 155 -485 155h-4h-229v-1239z" />
<glyph unicode="E" horiz-adv-x="1169" d="M246 0v1448h774v-100h-653v-568h608v-106h-608v-570h700v-104h-821z" />
<glyph unicode="F" horiz-adv-x="1116" d="M246 0v1448h809v-100h-688v-609h643v-108h-643v-631h-121z" />
<glyph unicode="G" horiz-adv-x="1429" d="M123 715q0 336 188 538q197 211 535 211q260 0 414 -65l-37 -107q-172 61 -371 62q-260 0 -418 -142q-184 -162 -184 -477q0 -328 192 -497q170 -152 453 -152q143 0 270 31v491h121v-573q-207 -55 -428 -55q-344 0 -545 215q-190 201 -190 520z" />
<glyph unicode="H" horiz-adv-x="1574" d="M246 0v1448h121v-668h841v668h121v-1448h-121v674h-841v-674h-121z" />
<glyph unicode="I" horiz-adv-x="612" d="M246 0v1448h121v-1448h-121z" />
<glyph unicode="J" horiz-adv-x="612" d="M-51 -287q174 96 241 248q55 125 56 348v1139h121v-1135q0 -262 -66 -407q-82 -178 -295 -283z" />
<glyph unicode="K" horiz-adv-x="1224" d="M246 0v1448h121v-1448h-121zM444 752v39l584 657h152l-605 -668l648 -780h-162z" />
<glyph unicode="L" horiz-adv-x="995" d="M246 0v1448h121v-1337h628v-111h-749z" />
<glyph unicode="M" horiz-adv-x="1933" d="M246 0v1448h198l498 -1403l551 1403h195v-1448h-121l6 1362l-533 -1362h-204l-480 1356l11 -193v-1163h-121z" />
<glyph unicode="N" horiz-adv-x="1593" d="M246 0v1448h198l785 -1389l-6 187v1202h125v-1448h-224l-766 1370l9 -137v-1233h-121z" />
<glyph unicode="O" horiz-adv-x="1669" d="M123 727q0 336 202.5 538.5t530.5 202.5t514 -215q176 -202 176 -530q0 -334 -194 -539q-201 -209 -535 -209q-319 0 -510 213q-184 205 -184 539zM389 274q159 -194 431 -194h3q291 0 453 186q149 174 149 459q0 281 -153 455q-162 184 -434 184q-283 0 -445 -182 q-151 -173 -151 -449q0 -278 147 -459z" />
<glyph unicode="P" horiz-adv-x="1179" d="M246 0v1448h448q211 0 328 -112.5t117 -323.5q0 -203 -131 -324q-143 -135 -420 -135h-47v106h59q410 0 410 342q0 346 -361 347h-280v-1348h-123z" />
<glyph unicode="Q" horiz-adv-x="1728" d="M123 727q0 336 202.5 538.5t530.5 202.5t514 -215q176 -202 176 -530q0 -334 -194 -539q-201 -209 -535 -209q-319 0 -510 213q-184 205 -184 539zM389 274q159 -194 431 -194h3q291 0 453 186q149 174 149 459q0 281 -153 455q-162 184 -434 184q-283 0 -445 -182 q-151 -173 -151 -449q0 -278 147 -459zM805 -68q133 0 297 -61q141 -53 256 -66q47 -4 248 -4v-110q-182 0 -215 2q-143 10 -271 59q-203 78 -315 78v102z" />
<glyph unicode="R" horiz-adv-x="1411" d="M246 0v1448h448q207 0 322 -98q123 -106 123 -314q0 -301 -283 -397l246 -358q102 -148 272 -199l-24 -102q-63 4 -123 30q-117 47 -193 160l-295 438q-57 -12 -151 -12h-219v-596h-123zM369 709h231q410 0 410 315q0 174 -95 252q-86 72 -266 72h-280v-639z" />
<glyph unicode="S" horiz-adv-x="1112" d="M123 63l45 105q158 -74 332 -74q147 0 245 53q127 68 127 211q0 162 -184 271l-344 176q-184 123 -184 319q0 162 116 250q109 82 287 82q195 0 326 -57l-33 -94q-131 49 -291 49q-295 0 -295 -221q0 -147 187 -254q172 -92 346 -185q186 -126 186 -323q0 -190 -139 -293 q-129 -94 -346 -94q-229 0 -381 79z" />
<glyph unicode="T" horiz-adv-x="1132" d="M0 1339v109h1133v-109h-506v-1339h-121v1339h-506z" />
<glyph unicode="U" horiz-adv-x="1560" d="M225 479v969h125v-954q0 -412 434 -412q436 0 437 461v905h114v-913q0 -307 -184 -451q-143 -111 -367 -111q-559 0 -559 506z" />
<glyph unicode="V" horiz-adv-x="1282" d="M0 1448h135l488 -1350l538 1350h121l-575 -1448h-177z" />
<glyph unicode="W" horiz-adv-x="2043" d="M20 1448h130l399 -1376l409 1020l-120 356h125l471 -1378l471 1378h118l-495 -1448h-193l-321 936l-377 -936h-191z" />
<glyph unicode="X" horiz-adv-x="1193" d="M12 0l508 772l-414 676h138l348 -574l371 574h129l-437 -672l478 -776h-142l-407 674l-432 -674h-140z" />
<glyph unicode="Y" horiz-adv-x="1087" d="M12 1448h133l390 -766l415 766h125l-485 -881v-567h-121v571z" />
<glyph unicode="Z" horiz-adv-x="1083" d="M61 0v123l791 1218h-737v107h864v-109l-797 -1233h840v-106h-961z" />
<glyph unicode="[" horiz-adv-x="708" d="M246 -451v1995h319v-98h-205v-1798h205v-99h-319z" />
<glyph unicode="\" horiz-adv-x="1034" d="M0 1481l92 49l944 -1839l-96 -47z" />
<glyph unicode="]" horiz-adv-x="708" d="M143 -352h205v1798h-205v98h320v-1995h-320v99z" />
<glyph unicode="^" horiz-adv-x="1046" d="M123 602l326 846h176l299 -846h-136l-253 770l-287 -770h-125z" />
<glyph unicode="_" horiz-adv-x="1024" d="M0 -213h1024v-106h-1024v106z" />
<glyph unicode="a" horiz-adv-x="1136" d="M90 295q0 182 143 268q106 63 273 68l285 6v170q0 141 -74 192q-63 43 -236 43q-98 0 -262 -51l-24 94q35 16 116 35q109 25 215 25q375 0 375 -287v-655q1 -109 107 -123l-11 -92q-10 -1 -20 -1q-58 0 -107 31q-68 41 -73 117q-63 -43 -127 -86q-123 -65 -276 -65h-5 q-141 0 -220 80.5t-79 230.5zM201 309q0 -229 223 -229q102 0 238 67q92 45 129 78v322l-295 -12q-141 -6 -218 -69t-77 -157z" />
<glyph unicode="b" horiz-adv-x="1206" d="M205 29v1515h112v-1438q82 -22 244 -22h14q190 0 295 133q96 123 97 328q0 479 -338 479q-63 0 -121 -14l-19 90q43 22 151 22h9q207 0 320.5 -144t113.5 -392q0 -322 -155 -475q-131 -127 -359 -127q-195 0 -364 45z" />
<glyph unicode="c" horiz-adv-x="997" d="M123 557q0 272 135 429t365 157q180 0 290 -60l-39 -96q-131 57 -260 57q-174 0 -274 -128t-100 -351q0 -252 96 -362q102 -117 350 -117q53 0 127 12q41 8 82 17l20 -97q-90 -36 -237 -36h-8q-285 0 -416 136t-131 439z" />
<glyph unicode="d" horiz-adv-x="1191" d="M123 549q0 283 151 444q139 150 359 150q131 0 241 -33v434h113v-1544h-113v115q-135 -131 -292 -131q-459 0 -459 565zM240 543q0 -231 94 -350q86 -111 246 -111q128 0 294 143v781q-115 41 -243 41q-199 0 -303 -160q-88 -135 -88 -344z" />
<glyph unicode="e" horiz-adv-x="1083" d="M123 539q0 606 479 606q379 0 379 -555v-41h-741q6 -281 131 -383q94 -80 309 -80q55 0 151 16q84 14 113 25l23 -98q-20 -12 -101 -27q-111 -20 -235 -20q-250 0 -371 118q-137 135 -137 439zM240 643h620q0 414 -282 414q-141 0 -230 -103q-92 -109 -108 -311z" />
<glyph unicode="f" horiz-adv-x="667" d="M41 1014v104h164v109q0 360 409 360q138 0 230 -31l-21 -98q-125 27 -209 27q-152 0 -219 -51q-78 -59 -78 -205v-111h240v-104h-240v-1465h-112v1465h-164z" />
<glyph unicode="g" horiz-adv-x="1198" d="M127 555q0 291 149 446q135 141 359 142q164 0 350 -35v-1194q0 -385 -430 -385q-197 0 -336 35l23 106q147 -37 280 -37q172 0 250 54q102 72 102 262v141q-117 -106 -274 -106q-209 0 -321 100q-152 135 -152 471zM240 549q0 -244 91 -354.5t277 -110.5q137 0 264 121 v819q-119 20 -239 20q-205 0 -305 -145q-88 -129 -88 -350z" />
<glyph unicode="h" horiz-adv-x="1241" d="M205 0v1544h112v-557q102 74 156 100q115 55 242 56q213 0 289 -142q47 -88 47 -274v-727h-105v694q0 178 -41 250q-55 96 -213 96q-135 0 -375 -155v-885h-112z" />
<glyph unicode="i" horiz-adv-x="526" d="M152 1466l108 111l113 -111l-113 -112zM203 0v1118h116v-1118h-116z" />
<glyph unicode="j" horiz-adv-x="526" d="M-150 -434l19 96q45 -12 98 -12q238 0 238 309v1159h112v-1161q0 -408 -354 -408q-57 0 -113 17zM152 1466l110 111l113 -111l-113 -112z" />
<glyph unicode="k" horiz-adv-x="1103" d="M205 0v1544h112v-1544h-112zM399 592l490 526h139l-493 -524l247 -309q144 -178 271 -215l-33 -84q-145 12 -299 204z" />
<glyph unicode="l" horiz-adv-x="526" d="M205 0v1544h112v-1544h-112z" />
<glyph unicode="m" horiz-adv-x="1923" d="M205 0v1118h112v-137q197 162 361 162q233 0 307 -164q119 80 164 102q125 61 242 62q213 0 292 -135q53 -92 54 -281v-727h-113v694q0 168 -39 242q-57 104 -213 104q-147 0 -360 -153q14 -90 14 -160v-727h-111v694q0 170 -36 244q-55 106 -211 106q-98 0 -351 -167 v-877h-112z" />
<glyph unicode="n" horiz-adv-x="1243" d="M205 0v1118h112v-131q217 156 398 156q215 0 291 -142q49 -90 49 -274v-727h-109v694q0 178 -41 250q-55 96 -213 96q-135 0 -375 -155v-885h-112z" />
<glyph unicode="o" horiz-adv-x="1214" d="M123 547q0 285 141 444q133 152 352 152q476 0 476 -584q0 -285 -140 -436q-129 -139 -348 -139q-225 0 -350 143q-131 147 -131 420zM240 557q0 -207 79 -330q96 -147 295 -147q363 0 363 479q0 199 -72 324q-92 164 -295 164q-199 0 -295 -162q-75 -127 -75 -323v-5z " />
<glyph unicode="p" horiz-adv-x="1206" d="M205 -451v1569h112v-94q164 111 322 111q211 0 327.5 -146.5t116.5 -400.5q0 -604 -514 -604q-168 0 -252 14v-449h-112zM317 104q139 -20 258 -20q190 0 295 129q97 123 97 326q0 495 -343 495h-1q-80 0 -187 -49q-78 -37 -119 -70v-811z" />
<glyph unicode="q" horiz-adv-x="1198" d="M123 563q0 270 151 430q141 150 359 150q190 0 354 -53v-1541h-113v496q-117 -61 -290 -61q-461 0 -461 579zM236 557q0 -475 354 -475q173 0 284 72v860q-129 30 -238 30h-7q-203 0 -305 -151q-88 -129 -88 -336z" />
<glyph unicode="r" horiz-adv-x="770" d="M205 0v1118h112v-149q39 70 132.5 120t195.5 50q82 -1 125 -15l-22 -98q-61 14 -127 14q-182 0 -304 -200v-840h-112z" />
<glyph unicode="s" horiz-adv-x="927" d="M117 29l24 100q139 -43 273 -43q135 0 221 50t86 140q0 121 -146 195q-133 61 -268 125q-145 94 -145 260q0 139 94 212t256 73q121 0 244 -37l-23 -96q-116 34 -237 34h-7q-109 0 -168 -49t-59 -129q0 -121 146 -198q133 -63 268 -129q145 -92 145 -244 q0 -168 -131 -246q-102 -61 -268 -61q-170 0 -305 43z" />
<glyph unicode="t" horiz-adv-x="825" d="M82 1012v106h164v230h108v-230h353v-106h-351v-709q0 -137 50 -178q43 -37 188 -37q78 0 158 27l28 -101q-78 -30 -174 -30h-6q-190 0 -254 41q-100 63 -100 276v711h-164z" />
<glyph unicode="u" horiz-adv-x="1234" d="M195 399v719h112v-684q0 -174 31 -241q49 -106 203 -107q135 0 387 158v874h106v-1118h-106v135q-137 -86 -168 -100q-119 -57 -240 -58q-203 0 -276 146q-49 94 -49 276z" />
<glyph unicode="v" horiz-adv-x="1013" d="M41 1118h127l321 -1052l84 247l281 805h115l-391 -1118h-183z" />
<glyph unicode="w" horiz-adv-x="1781" d="M41 1118h119l327 -1044l330 1044h156l291 -1044l364 1044h113l-400 -1118h-163l-285 1018l-39 -144l-287 -874h-164z" />
<glyph unicode="x" horiz-adv-x="980" d="M43 0l383 571l-363 547h134l295 -456l292 456h127l-356 -540l383 -578h-139l-310 483l-313 -483h-133z" />
<glyph unicode="y" horiz-adv-x="1005" d="M41 1118h125l321 -1040l70 201l289 839h119l-547 -1569h-113l154 451h-64z" />
<glyph unicode="z" horiz-adv-x="997" d="M82 0v117l696 895h-637v106h766v-108l-708 -904h716v-106h-833z" />
<glyph unicode="{" horiz-adv-x="692" d="M115 502v116q74 0 127 68t45 145l-45 431q-2 25 -2 49q0 274 366 274h25v-98h-37q-244 0 -244 -187q0 -20 2 -45l41 -376q4 -29 4 -56q0 -219 -188 -258v-4q186 -59 186 -260q0 -25 -2 -51l-41 -381q-25 -221 242 -221h37v-97h-25q-168 0 -252 46q-117 61 -116 223 q0 27 4 57l45 412q8 74 -45.5 143.5t-126.5 69.5z" />
<glyph unicode="|" horiz-adv-x="524" d="M205 -451v1995h112v-1995h-112z" />
<glyph unicode="}" horiz-adv-x="692" d="M72 -352h37q266 0 241 221l-41 381q-2 27 -2 51q0 197 187 260v4q-188 39 -189 258q0 27 4 56l41 376q2 25 2 45q0 100 -59.5 142.5t-183.5 42.5h-37v100h24q367 0 367 -274q0 -25 -2 -49l-45 -431q-8 -78 45 -145.5t127 -67.5v-116q-74 0 -127 -70t-45 -143l45 -412 q4 -31 4 -57q0 -162 -117 -223q-84 -45 -252 -46h-24v97z" />
<glyph unicode="~" horiz-adv-x="1034" d="M41 756q121 88 258 88q111 0 235.5 -63.5t215.5 -63.5q84 0 178 67l65 -77q-113 -102 -243 -103q-113 0 -249 61.5t-214 61.5q-84 0 -191 -59z" />
<glyph unicode="&#xa0;" />
<glyph unicode="&#xa1;" horiz-adv-x="555" d="M188 971v145h142v-145h-142zM203 -332l4 1123h102l4 -259v-864h-110z" />
<glyph unicode="&#xa2;" horiz-adv-x="1017" d="M123 772q0 250 113.5 402.5t310.5 179.5l-4 190h121l-5 -186q160 -8 254 -60l-39 -96q-131 57 -260 58q-174 0 -274 -128t-100 -352q0 -252 96 -362q102 -117 350 -117q53 0 127 12q41 8 82 17l20 -97q-92 -37 -245 -36h-11l7 -197h-123l6 203q-219 27 -322.5 164 t-103.5 405z" />
<glyph unicode="&#xa3;" horiz-adv-x="927" d="M61 530v107h213q6 88 7 412q0 190 100 290q74 74 207 99q23 4 182 14l6 -100q-195 -14 -258 -45q-135 -68 -129 -267q6 -236 -8 -403h395v-107h-401q-31 -307 -142 -424h695v-106h-838v109q82 27 133 204q37 125 41 217h-203z" />
<glyph unicode="&#xa4;" horiz-adv-x="1177" d="M0 475v111h156q-6 66 -6 129q0 84 8 143h-158v111h176q49 227 189 354q147 133 374 133q190 0 332 -67l-39 -89q-131 55 -297 56q-362 0 -440 -387h526v-111h-540q-6 -57 -7 -123q0 -86 9 -149h538v-111h-522q88 -385 477 -385q162 0 260 45l39 -94q-133 -57 -336 -57 q-465 0 -567 491h-172z" />
<glyph unicode="&#xa5;" horiz-adv-x="1267" d="M102 1448h134l389 -766l415 766h125l-442 -803h399v-106h-442v-203h442v-107h-442v-229h-121v229h-420v107h420v203h-420v106h381z" />
<glyph unicode="&#xa7;" horiz-adv-x="815" d="M102 721q0 143 148 256q-57 106 -57 199q0 252 319 301l23 -107q-221 -45 -222 -168q0 -90 64 -188l266 -414q70 -109 70 -246q0 -72 -43 -146.5t-107 -121.5q57 -86 49 -231q-14 -274 -381 -291l-10 112q272 29 273 177q0 119 -66 221l-252 397q-74 117 -74 250z M223 723q0 -80 56 -168l233 -371q82 55 82 178q0 92 -55 179l-230 354q-86 -66 -86 -172z" />
<glyph unicode="&#xa9;" horiz-adv-x="1693" d="M123 727q0 342 206 545t539 203q336 0 527 -218q176 -202 176 -534q0 -340 -197 -543q-201 -209 -545 -209q-330 0 -522 213q-184 205 -184 543zM240 729q0 -279 147 -457q162 -199 449 -198q303 0 469 188q151 174 151 463q0 285 -158 461q-164 186 -448 186 q-293 0 -457 -186q-154 -172 -153 -457zM467 737q0 203 110.5 318.5t321.5 115.5q145 0 240 -55l-37 -80q-98 45 -201 45q-143 0 -231 -77q-100 -90 -101 -256q0 -168 107 -261q96 -82 252 -81q76 0 190 34l31 -78q-119 -49 -246 -49q-209 0 -325 121q-111 113 -111 303z " />
<glyph unicode="&#xaa;" horiz-adv-x="847" d="M123 623v92h604v-92h-604zM154 975q0 188 241 194l156 5v86q0 80 -47 104q-31 16 -117 16q-33 0 -80 -12l-80 -18l-20 75q90 39 207 39q225 0 225 -176v-358q0 -60 63 -60l-6 -77q-135 -10 -145 81q-100 -86 -217 -86q-180 0 -180 187zM242 983q0 -113 112 -113 q76 0 197 86v142l-152 -8q-158 -8 -157 -107z" />
<glyph unicode="&#xab;" horiz-adv-x="856" d="M102 557l207 447l97 -35l-177 -412l174 -407l-94 -39zM442 557l209 447l94 -35l-176 -412l174 -407l-94 -39z" />
<glyph unicode="&#xac;" horiz-adv-x="919" d="M82 668v104h749v-428h-110v324h-639z" />
<glyph unicode="&#xad;" horiz-adv-x="733" d="M61 535v104h611v-104h-611z" />
<glyph unicode="&#xae;" horiz-adv-x="1693" d="M123 727q0 342 206 545t539 203q338 0 527 -215q176 -203 176 -537q0 -340 -197 -543q-201 -209 -545 -209q-330 0 -522 211q-184 205 -184 545zM240 729q0 -279 147 -457q162 -199 449 -198q303 0 469 188q151 174 151 463q0 285 -158 461q-164 186 -448 186 q-293 0 -457 -186q-154 -172 -153 -457zM567 330v856h275q268 0 268 -262q0 -176 -160 -244q66 -80 133 -160q88 -96 164 -119l-22 -86q-115 12 -206 128t-171 216q-41 -4 -68 -4h-112v-325h-101zM668 748h120q218 -1 218 167q0 184 -189 185h-149v-352z" />
<glyph unicode="&#xb0;" horiz-adv-x="655" d="M61 1202q0 117 74 190.5t193 73.5q125 0 195.5 -69.5t70.5 -194.5t-75 -197.5t-197 -72.5q-260 0 -261 270zM164 1202q0 -184 162 -184q163 0 163 184q0 82 -43 131t-120 49q-162 0 -162 -180z" />
<glyph unicode="&#xb1;" horiz-adv-x="931" d="M82 0v106h768v-106h-768zM82 670v106h326v328h116v-328h326v-106h-326v-326h-116v326h-326z" />
<glyph unicode="&#xb5;" horiz-adv-x="1249" d="M205 -451v1569h112v-684q0 -174 31 -241q49 -106 203 -107q135 0 387 158v874h106v-1118h-106v135q-137 -86 -168 -100q-119 -57 -240 -58q-131 0 -213 68v-496h-112z" />
<glyph unicode="&#xb6;" horiz-adv-x="1191" d="M61 1018q0 430 428 430h166v-875h-125q-469 0 -469 445zM516 -432l23 104q61 -10 98 -10q133 0 188 82q47 70 47 213v1491h115v-1493q0 -406 -352 -406q-82 0 -119 19z" />
<glyph unicode="&#xb7;" horiz-adv-x="524" d="M205 649v125h114v-125h-114z" />
<glyph unicode="&#xba;" horiz-adv-x="847" d="M123 623v92h604v-92h-604zM133 1120q0 164 80 256t213 92q291 0 291 -342q0 -164 -83 -252t-216 -88q-137 0 -211 87.5t-74 246.5zM233 1124q0 -252 193 -252q188 0 188 254q0 256 -190 256t-191 -258z" />
<glyph unicode="&#xbb;" horiz-adv-x="856" d="M100 969l97 35l206 -447l-206 -446l-95 39l174 407zM440 969l97 35l206 -447l-206 -446l-95 39l174 407z" />
<glyph unicode="&#xbf;" horiz-adv-x="784" d="M143 70q0 106 86 215q78 90 158 178q86 102 86 190q0 -14 -12 121l102 19q20 -82 21 -138q0 -119 -84 -229q-78 -84 -158 -170q-84 -94 -84 -174q0 -139 131 -229q105 -72 252 -86l-25 -103q-190 16 -319 111q-154 111 -154 295zM434 971v145h141v-145h-141z" />
<glyph unicode="&#xc0;" horiz-adv-x="1331" d="M29 0l581 1448h168l533 -1448h-131l-207 571h-594l-229 -571h-121zM377 1642l43 113l426 -170l-37 -84zM420 676h516l-246 678z" />
<glyph unicode="&#xc1;" horiz-adv-x="1331" d="M29 0l581 1448h168l533 -1448h-131l-207 571h-594l-229 -571h-121zM420 676h516l-246 678zM545 1585l424 170l45 -113l-434 -141z" />
<glyph unicode="&#xc2;" horiz-adv-x="1331" d="M29 0l581 1448h168l533 -1448h-131l-207 571h-594l-229 -571h-121zM307 1597l387 160l365 -160l-39 -86l-328 136l-344 -136zM420 676h516l-246 678z" />
<glyph unicode="&#xc3;" horiz-adv-x="1331" d="M29 0l581 1448h168l533 -1448h-131l-207 571h-594l-229 -571h-121zM391 1649q53 37 58 39q59 33 137 32q53 0 133 -36.5t119 -36.5q78 0 135 57l49 -74q-63 -86 -193 -86q-47 0 -126.5 38t-124.5 38q-72 0 -142 -49zM420 676h516l-246 678z" />
<glyph unicode="&#xc4;" horiz-adv-x="1331" d="M29 0l581 1448h168l533 -1448h-131l-207 571h-594l-229 -571h-121zM379 1632l94 94l94 -94l-94 -96zM420 676h516l-246 678zM797 1632l94 94l96 -94l-96 -96z" />
<glyph unicode="&#xc5;" horiz-adv-x="1331" d="M29 0l561 1395q-125 49 -125 188q0 98 70 158q63 55 155 55q88 0 152 -47q76 -57 76 -162q0 -139 -121 -190l514 -1397h-131l-207 571h-594l-229 -571h-121zM420 676h516l-246 678zM553 1589q0 -61 39 -99t100 -38t99 36t38 97q0 59 -42 97t-97 38q-61 0 -99 -34.5 t-38 -96.5z" />
<glyph unicode="&#xc6;" horiz-adv-x="1837" d="M0 0l827 1448h859v-100h-654v-568h608v-106h-608v-570h703v-104h-824v674h-403l-379 -674h-129zM567 780h344v606z" />
<glyph unicode="&#xc7;" horiz-adv-x="1288" d="M123 715q0 338 193.5 543.5t533.5 205.5q213 0 410 -65l-35 -105q-178 59 -371 60q-260 0 -420 -140q-184 -162 -184 -479q0 -330 194 -499q170 -150 451 -150q182 0 340 51l33 -100q-131 -57 -410 -57q-340 0 -543 210q-193 201 -192 525zM696 -406q111 68 111 162 q0 51 -53 140h127q39 -63 41 -129q2 -154 -189 -236z" />
<glyph unicode="&#xc8;" horiz-adv-x="1169" d="M246 0v1448h774v-100h-653v-568h608v-106h-608v-570h700v-104h-821zM356 1642l43 113l426 -170l-37 -84z" />
<glyph unicode="&#xc9;" horiz-adv-x="1169" d="M246 0v1448h774v-100h-653v-568h608v-106h-608v-570h700v-104h-821zM408 1585l423 170l46 -113l-435 -141z" />
<glyph unicode="&#xca;" horiz-adv-x="1169" d="M246 0v1448h774v-100h-653v-568h608v-106h-608v-570h700v-104h-821zM260 1597l387 160l365 -160l-39 -86l-328 136l-344 -136z" />
<glyph unicode="&#xcb;" horiz-adv-x="1169" d="M246 0v1448h774v-100h-653v-568h608v-106h-608v-570h700v-104h-821zM342 1632l94 94l94 -94l-94 -96zM760 1632l94 94l96 -94l-96 -96z" />
<glyph unicode="&#xcc;" horiz-adv-x="612" d="M-74 1642l43 113l426 -170l-37 -84zM246 0v1448h121v-1448h-121z" />
<glyph unicode="&#xcd;" horiz-adv-x="612" d="M162 1585l424 170l45 -113l-434 -141zM246 0v1448h121v-1448h-121z" />
<glyph unicode="&#xce;" horiz-adv-x="612" d="M-68 1597l387 160l365 -160l-39 -86l-328 136l-344 -136zM246 0v1448h121v-1448h-121z" />
<glyph unicode="&#xcf;" horiz-adv-x="612" d="M6 1632l94 94l95 -94l-95 -96zM246 0v1448h121v-1448h-121zM424 1632l94 94l96 -94l-96 -96z" />
<glyph unicode="&#xd1;" horiz-adv-x="1509" d="M246 0v1448h198l785 -1389l-6 187v1202h125v-1448h-224l-766 1370l9 -137v-1233h-121zM496 1649q53 37 57 39q59 33 137 32q53 0 133 -36.5t119 -36.5q78 0 135 57l49 -74q-63 -86 -192 -86q-47 0 -127 38t-125 38q-72 0 -141 -49z" />
<glyph unicode="&#xd2;" horiz-adv-x="1669" d="M123 727q0 336 202.5 538.5t530.5 202.5t514 -215q176 -202 176 -530q0 -334 -194 -539q-201 -209 -535 -209q-319 0 -510 213q-184 205 -184 539zM242 729q0 -274 147 -455q160 -195 434 -194q291 0 453 186q149 174 149 459q0 281 -153 455q-162 184 -434 184 q-283 0 -445 -182q-152 -174 -151 -453zM520 1642l43 113l426 -170l-37 -84z" />
<glyph unicode="&#xd3;" horiz-adv-x="1669" d="M123 727q0 336 202.5 538.5t530.5 202.5t514 -215q176 -202 176 -530q0 -334 -194 -539q-201 -209 -535 -209q-319 0 -510 213q-184 205 -184 539zM242 729q0 -274 147 -455q160 -195 434 -194q291 0 453 186q149 174 149 459q0 281 -153 455q-162 184 -434 184 q-283 0 -445 -182q-152 -174 -151 -453zM633 1585l424 170l45 -113l-434 -141z" />
<glyph unicode="&#xd4;" horiz-adv-x="1669" d="M123 727q0 336 202.5 538.5t530.5 202.5t514 -215q176 -202 176 -530q0 -334 -194 -539q-201 -209 -535 -209q-319 0 -510 213q-184 205 -184 539zM242 729q0 -274 147 -455q160 -195 434 -194q291 0 453 186q149 174 149 459q0 281 -153 455q-162 184 -434 184 q-283 0 -445 -182q-152 -174 -151 -453zM479 1597l387 160l365 -160l-39 -86l-328 136l-344 -136z" />
<glyph unicode="&#xd5;" horiz-adv-x="1669" d="M123 727q0 336 202.5 538.5t530.5 202.5t514 -215q176 -202 176 -530q0 -334 -194 -539q-201 -209 -535 -209q-319 0 -510 213q-184 205 -184 539zM242 729q0 -274 147 -455q160 -195 434 -194q291 0 453 186q149 174 149 459q0 281 -153 455q-162 184 -434 184 q-283 0 -445 -182q-152 -174 -151 -453zM514 1649q53 37 57 39q59 33 138 32q53 0 133 -36.5t119 -36.5q78 0 135 57l49 -74q-63 -86 -193 -86q-47 0 -127 38t-125 38q-72 0 -141 -49z" />
<glyph unicode="&#xd6;" horiz-adv-x="1669" d="M123 727q0 336 202.5 538.5t530.5 202.5t514 -215q176 -202 176 -530q0 -334 -194 -539q-201 -209 -535 -209q-319 0 -510 213q-184 205 -184 539zM242 729q0 -274 147 -455q160 -195 434 -194q291 0 453 186q149 174 149 459q0 281 -153 455q-162 184 -434 184 q-283 0 -445 -182q-152 -174 -151 -453zM532 1632l95 94l94 -94l-94 -96zM950 1632l94 94l97 -94l-97 -96z" />
<glyph unicode="&#xd8;" horiz-adv-x="1669" d="M66 18l206 213q-150 197 -149 496q0 336 202.5 538.5t530.5 202.5q279 0 459 -159l198 204l84 -79l-202 -211q152 -199 151 -500q0 -334 -194 -539q-201 -209 -535 -209q-283 0 -467 168l-200 -206zM242 729q0 -240 114 -410l875 902q-156 143 -393 143q-283 0 -445 -182 q-152 -174 -151 -453zM432 229q154 -150 391 -149q291 0 453 186q149 174 149 459q0 242 -118 410z" />
<glyph unicode="&#xd9;" horiz-adv-x="1560" d="M225 479v969h125v-954q0 -412 434 -412q436 0 437 461v905h114v-913q0 -307 -184 -451q-143 -111 -367 -111q-559 0 -559 506zM479 1642l43 113l426 -170l-37 -84z" />
<glyph unicode="&#xda;" horiz-adv-x="1560" d="M225 479v969h125v-954q0 -412 434 -412q436 0 437 461v905h114v-913q0 -307 -184 -451q-143 -111 -367 -111q-559 0 -559 506zM571 1585l424 170l45 -113l-434 -141z" />
<glyph unicode="&#xdb;" horiz-adv-x="1560" d="M225 479v969h125v-954q0 -412 434 -412q436 0 437 461v905h114v-913q0 -307 -184 -451q-143 -111 -367 -111q-559 0 -559 506zM414 1597l387 160l364 -160l-39 -86l-327 136l-344 -136z" />
<glyph unicode="&#xdc;" horiz-adv-x="1560" d="M225 479v969h125v-954q0 -412 434 -412q436 0 437 461v905h114v-913q0 -307 -184 -451q-143 -111 -367 -111q-559 0 -559 506zM463 1632l94 94l94 -94l-94 -96zM881 1632l94 94l96 -94l-96 -96z" />
<glyph unicode="&#xdf;" horiz-adv-x="1230" d="M205 -451v1635q0 397 370 397q311 0 312 -291q0 -90 -62 -182q-57 -72 -116 -143q-61 -78 -62 -131q0 -109 123 -197q113 -74 225 -148q123 -96 123 -225q0 -147 -104 -221q-86 -59 -221 -59q-203 0 -293 45l26 98q172 -41 246 -41q240 0 240 162q0 106 -123 190 q-113 72 -225 144q-123 98 -123 245q0 92 113.5 229.5t113.5 239.5q0 184 -193 185q-152 0 -210 -84q-47 -68 -48 -215v-1633h-112z" />
<glyph unicode="&#xe0;" horiz-adv-x="1136" d="M90 295q0 182 143 268q106 63 273 68l285 6v170q0 141 -74 192q-63 43 -236 43q-98 0 -262 -51l-24 94q35 16 116 35q109 25 215 25q375 0 375 -287v-655q1 -109 107 -123l-11 -92q-70 -6 -127 30q-68 41 -73 117q-63 -43 -127 -86q-125 -66 -281 -65q-141 0 -220 80.5 t-79 230.5zM201 309q0 -229 223 -229q102 0 238 67q92 45 129 78v322l-295 -12q-141 -6 -218 -69t-77 -157zM346 1532l64 92l360 -270l-55 -78z" />
<glyph unicode="&#xe1;" horiz-adv-x="1136" d="M90 295q0 182 143 268q106 63 273 68l285 6v170q0 141 -74 192q-63 43 -236 43q-98 0 -262 -51l-24 94q35 16 116 35q109 25 215 25q375 0 375 -287v-655q1 -109 107 -123l-11 -92q-70 -6 -127 30q-68 41 -73 117q-63 -43 -127 -86q-125 -66 -281 -65q-141 0 -220 80.5 t-79 230.5zM201 309q0 -229 223 -229q102 0 238 67q92 45 129 78v322l-295 -12q-141 -6 -218 -69t-77 -157zM379 1356l358 266l66 -90l-371 -256z" />
<glyph unicode="&#xe2;" horiz-adv-x="1136" d="M90 295q0 182 143 268q106 63 273 68l285 6v170q0 141 -74 192q-63 43 -236 43q-98 0 -262 -51l-24 94q35 16 116 35q109 25 215 25q375 0 375 -287v-655q1 -109 107 -123l-11 -92q-70 -6 -127 30q-68 41 -73 117q-63 -43 -127 -86q-125 -66 -281 -65q-141 0 -220 80.5 t-79 230.5zM147 1358l388 231l380 -231l-43 -76l-337 184l-340 -184zM201 309q0 -229 223 -229q102 0 238 67q92 45 129 78v322l-295 -12q-141 -6 -218 -69t-77 -157z" />
<glyph unicode="&#xe3;" horiz-adv-x="1136" d="M90 295q0 182 143 268q106 63 273 68l285 6v170q0 141 -74 192q-63 43 -236 43q-98 0 -262 -51l-24 94q35 16 116 35q109 25 215 25q375 0 375 -287v-655q1 -109 107 -123l-11 -92q-70 -6 -127 30q-68 41 -73 117q-63 -43 -127 -86q-125 -66 -281 -65q-141 0 -220 80.5 t-79 230.5zM201 309q0 -229 223 -229q102 0 238 67q92 45 129 78v322l-295 -12q-141 -6 -218 -69t-77 -157zM233 1432q53 37 58 38q59 33 137 33q53 0 133 -36.5t119 -36.5q78 0 135 57l49 -74q-74 -86 -192 -86q-47 0 -127 38t-125 38q-74 0 -139 -49z" />
<glyph unicode="&#xe4;" horiz-adv-x="1136" d="M90 295q0 182 143 268q106 63 273 68l285 6v170q0 141 -74 192q-63 43 -236 43q-98 0 -262 -51l-24 94q35 16 116 35q109 25 215 25q375 0 375 -287v-655q1 -109 107 -123l-11 -92q-70 -6 -127 30q-68 41 -73 117q-63 -43 -127 -86q-125 -66 -281 -65q-141 0 -220 80.5 t-79 230.5zM201 309q0 -229 223 -229q102 0 238 67q92 45 129 78v322l-295 -12q-141 -6 -218 -69t-77 -157zM223 1466l94 95l95 -95l-95 -96zM641 1466l94 95l96 -95l-96 -96z" />
<glyph unicode="&#xe5;" horiz-adv-x="1136" d="M90 295q0 182 143 268q106 63 273 68l285 6v170q0 141 -74 192q-63 43 -236 43q-98 0 -262 -51l-24 94q35 16 116 35q109 25 215 25q375 0 375 -287v-655q1 -109 107 -123l-11 -92q-70 -6 -127 30q-68 41 -73 117q-63 -43 -127 -86q-125 -66 -281 -65q-141 0 -220 80.5 t-79 230.5zM201 309q0 -229 223 -229q102 0 238 67q92 45 129 78v322l-295 -12q-141 -6 -218 -69t-77 -157zM311 1458q0 98 70 158q63 55 156 55q88 0 151 -47q76 -58 76 -162q0 -96 -62.5 -153.5t-160.5 -57.5t-160 52q-70 55 -70 155zM399 1464q0 -61 39 -99t101 -38 q61 0 99 36t38 97q0 59 -42 97t-97 38q-61 0 -99.5 -34.5t-38.5 -96.5z" />
<glyph unicode="&#xe6;" horiz-adv-x="1738" d="M92 295q0 180 144 266q106 66 272 70l283 6v170q0 150 -74 199q-61 41 -234 41q-61 0 -157 -23q-51 -12 -105 -27l-24 88q35 16 116 35q109 25 215 25q289 0 357 -180q125 180 379 180q373 0 372 -527v-47l-739 -30q6 -274 131 -375q96 -80 313 -80q119 0 263 41l22 -98 q-98 -47 -334 -47q-313 0 -438 200q-158 -104 -172 -112q-156 -86 -291 -86q-141 0 -220 80.5t-79 230.5zM199 309q0 -227 227 -227q72 0 211 70q112 55 184 108q-33 102 -37 281l-280 -9q-150 -4 -227.5 -65t-77.5 -158zM901 639l617 31q0 176 -72 281.5t-207 105.5 t-223 -96q-102 -111 -115 -322z" />
<glyph unicode="&#xe7;" horiz-adv-x="972" d="M123 557q0 272 135 429t365 157q180 0 290 -60l-39 -96q-131 57 -260 57q-174 0 -274 -128t-100 -351q0 -252 96 -362q102 -117 350 -117q53 0 127 12q41 8 82 17l20 -97q-92 -37 -245 -36q-285 0 -416 136t-131 439zM492 -406q111 68 110 162q0 51 -53 140h127 q39 -63 41 -129q2 -154 -189 -236z" />
<glyph unicode="&#xe8;" horiz-adv-x="1083" d="M123 539q0 606 479 606q379 0 379 -555v-41h-741q6 -281 131 -383q94 -80 309 -80q55 0 151 16q84 14 113 25l23 -98q-20 -12 -101 -27q-111 -20 -235 -20q-250 0 -371 118q-137 135 -137 439zM240 643h620q0 414 -282 414q-141 0 -230 -103q-92 -109 -108 -311z M367 1532l63 92l361 -270l-56 -78z" />
<glyph unicode="&#xe9;" horiz-adv-x="1083" d="M123 539q0 606 479 606q379 0 379 -555v-41h-741q6 -281 131 -383q94 -80 309 -80q55 0 151 16q84 14 113 25l23 -98q-20 -12 -101 -27q-111 -20 -235 -20q-250 0 -371 118q-137 135 -137 439zM240 643h620q0 414 -282 414q-141 0 -230 -103q-92 -109 -108 -311z M379 1356l358 266l66 -90l-371 -256z" />
<glyph unicode="&#xea;" horiz-adv-x="1083" d="M123 539q0 606 479 606q379 0 379 -555v-41h-741q6 -281 131 -383q94 -80 309 -80q55 0 151 16q84 14 113 25l23 -98q-20 -12 -101 -27q-111 -20 -235 -20q-250 0 -371 118q-137 135 -137 439zM195 1358l387 231l381 -231l-43 -76l-338 184l-340 -184zM240 643h620 q0 414 -282 414q-141 0 -230 -103q-92 -109 -108 -311z" />
<glyph unicode="&#xeb;" horiz-adv-x="1083" d="M123 539q0 606 479 606q379 0 379 -555v-41h-741q6 -281 131 -383q94 -80 309 -80q55 0 151 16q84 14 113 25l23 -98q-20 -12 -101 -27q-111 -20 -235 -20q-250 0 -371 118q-137 135 -137 439zM240 643h620q0 414 -282 414q-141 0 -230 -103q-92 -109 -108 -311z M270 1466l95 95l94 -95l-94 -96zM688 1466l94 95l97 -95l-97 -96z" />
<glyph unicode="&#xec;" horiz-adv-x="526" d="M-23 1532l64 92l360 -270l-55 -78zM205 0v1118h117v-1118h-117z" />
<glyph unicode="&#xed;" horiz-adv-x="526" d="M141 1356l359 266l65 -90l-370 -256zM205 0v1118h117v-1118h-117z" />
<glyph unicode="&#xee;" horiz-adv-x="526" d="M-123 1358l387 231l381 -231l-43 -76l-338 184l-340 -184zM205 0v1118h117v-1118h-117z" />
<glyph unicode="&#xef;" horiz-adv-x="526" d="M-27 1466l95 95l94 -95l-94 -96zM205 0v1118h117v-1118h-117zM391 1466l94 95l97 -95l-97 -96z" />
<glyph unicode="&#xf1;" horiz-adv-x="1286" d="M205 0v1118h112v-131q217 156 398 156q215 0 291 -142q49 -90 49 -274v-727h-109v694q0 178 -41 250q-55 96 -213 96q-135 0 -375 -155v-885h-112zM324 1432q53 37 57 38q59 33 137 33q53 0 133 -36.5t119 -36.5q78 0 135 57l49 -74q-74 -86 -192 -86q-47 0 -127 38 t-125 38q-74 0 -139 -49z" />
<glyph unicode="&#xf2;" horiz-adv-x="1214" d="M123 547q0 285 141 444q133 152 352 152q476 0 476 -584q0 -285 -140 -436q-129 -139 -348 -139q-225 0 -350 143q-131 147 -131 420zM240 557q0 -207 79 -330q96 -147 295 -147q363 0 363 479q0 199 -72 324q-92 164 -295 164q-199 0 -295 -162q-76 -129 -75 -328z M367 1532l63 92l361 -270l-56 -78z" />
<glyph unicode="&#xf3;" horiz-adv-x="1214" d="M123 547q0 285 141 444q133 152 352 152q476 0 476 -584q0 -285 -140 -436q-129 -139 -348 -139q-225 0 -350 143q-131 147 -131 420zM240 557q0 -207 79 -330q96 -147 295 -147q363 0 363 479q0 199 -72 324q-92 164 -295 164q-199 0 -295 -162q-76 -129 -75 -328z M399 1356l359 266l65 -90l-370 -256z" />
<glyph unicode="&#xf4;" horiz-adv-x="1214" d="M123 547q0 285 141 444q133 152 352 152q476 0 476 -584q0 -285 -140 -436q-129 -139 -348 -139q-225 0 -350 143q-131 147 -131 420zM221 1358l387 231l381 -231l-43 -76l-338 184l-340 -184zM240 557q0 -207 79 -330q96 -147 295 -147q363 0 363 479q0 199 -72 324 q-92 164 -295 164q-199 0 -295 -162q-76 -129 -75 -328z" />
<glyph unicode="&#xf5;" horiz-adv-x="1214" d="M123 547q0 285 141 444q133 152 352 152q476 0 476 -584q0 -285 -140 -436q-129 -139 -348 -139q-225 0 -350 143q-131 147 -131 420zM240 557q0 -207 79 -330q96 -147 295 -147q363 0 363 479q0 199 -72 324q-92 164 -295 164q-199 0 -295 -162q-76 -129 -75 -328z M295 1432q53 37 57 38q59 33 137 33q53 0 133 -36.5t119 -36.5q78 0 136 57l49 -74q-74 -86 -193 -86q-47 0 -127 38t-125 38q-74 0 -139 -49z" />
<glyph unicode="&#xf6;" horiz-adv-x="1214" d="M123 547q0 285 141 444q133 152 352 152q476 0 476 -584q0 -285 -140 -436q-129 -139 -348 -139q-225 0 -350 143q-131 147 -131 420zM240 557q0 -207 79 -330q96 -147 295 -147q363 0 363 479q0 199 -72 324q-92 164 -295 164q-199 0 -295 -162q-76 -129 -75 -328z M299 1466l94 95l94 -95l-94 -96zM717 1466l94 95l96 -95l-96 -96z" />
<glyph unicode="&#xf7;" horiz-adv-x="950" d="M92 668v110h766v-110h-766zM410 356v133h131v-133h-131zM410 961v135h131v-135h-131z" />
<glyph unicode="&#xf8;" horiz-adv-x="1214" d="M68 2l147 176q-92 139 -92 369q0 285 141 444q133 152 352 152q199 0 318 -109l121 148l75 -64l-133 -160q94 -143 95 -399q0 -285 -140 -436q-129 -139 -348 -139q-203 0 -325 116l-138 -163zM240 557q0 -168 55 -285l565 674q-94 100 -250 101q-199 0 -295 -162 q-76 -129 -75 -328zM350 186q96 -106 264 -106q363 0 363 479q0 182 -62 303z" />
<glyph unicode="&#xf9;" horiz-adv-x="1245" d="M195 399v719h112v-684q0 -174 31 -241q49 -106 203 -107q135 0 387 158v874h106v-1118h-106v135q-137 -86 -168 -100q-119 -57 -240 -58q-203 0 -276 146q-49 94 -49 276zM387 1532l64 92l360 -270l-55 -78z" />
<glyph unicode="&#xfa;" horiz-adv-x="1245" d="M195 399v719h112v-684q0 -174 31 -241q49 -106 203 -107q135 0 387 158v874h106v-1118h-106v135q-137 -86 -168 -100q-119 -57 -240 -58q-203 0 -276 146q-49 94 -49 276zM481 1356l359 266l65 -90l-370 -256z" />
<glyph unicode="&#xfb;" horiz-adv-x="1245" d="M195 399v719h112v-684q0 -174 31 -241q49 -106 203 -107q135 0 387 158v874h106v-1118h-106v135q-137 -86 -168 -100q-119 -57 -240 -58q-203 0 -276 146q-49 94 -49 276zM246 1358l387 231l381 -231l-43 -76l-338 184l-340 -184z" />
<glyph unicode="&#xfc;" horiz-adv-x="1245" d="M195 399v719h112v-684q0 -174 31 -241q49 -106 203 -107q135 0 387 158v874h106v-1118h-106v135q-137 -86 -168 -100q-119 -57 -240 -58q-203 0 -276 146q-49 94 -49 276zM332 1466l94 95l94 -95l-94 -96zM750 1466l94 95l96 -95l-96 -96z" />
<glyph unicode="&#xff;" horiz-adv-x="1005" d="M41 1118h125l321 -1040l70 201l289 839h119l-547 -1569h-113l154 451h-64zM203 1466l94 95l94 -95l-94 -96zM621 1466l94 95l96 -95l-96 -96z" />
<glyph unicode="&#x152;" horiz-adv-x="2209" d="M123 727q0 338 202.5 540.5t530.5 202.5q238 0 426 -133v111h774v-100h-649v-568h604v-106h-604v-570h700v-104h-825v127q-113 -78 -190 -109q-115 -43 -275 -43q-319 0 -510 213q-184 205 -184 539zM248 729q0 -272 145 -450q158 -193 430 -193q303 0 459 201v870 q-156 201 -444 201q-281 0 -439 -182q-152 -170 -151 -447z" />
<glyph unicode="&#x153;" horiz-adv-x="1933" d="M123 547q0 285 141 444q133 152 352 152q313 0 420 -264q109 266 416 266q379 0 379 -555v-41h-741q6 -281 131 -383q94 -80 309 -80q55 0 151 16q84 14 113 25l23 -98q-20 -12 -101 -27q-111 -20 -235 -20q-354 0 -455 260q-121 -258 -422 -258q-225 0 -350 143 q-131 147 -131 420zM240 557q0 -207 79 -330q96 -147 295 -147q363 0 363 479q0 199 -72 324q-92 164 -295 164q-199 0 -295 -162q-76 -129 -75 -328zM1090 643h620q0 414 -283 414q-141 0 -229 -103q-92 -109 -108 -311z" />
<glyph unicode="&#x178;" horiz-adv-x="1087" d="M12 1448h133l390 -766l415 766h125l-485 -881v-567h-121v571zM248 1632l94 94l94 -94l-94 -96zM666 1632l94 94l96 -94l-96 -96z" />
<glyph unicode="&#x2000;" horiz-adv-x="898" />
<glyph unicode="&#x2001;" horiz-adv-x="1796" />
<glyph unicode="&#x2002;" horiz-adv-x="898" />
<glyph unicode="&#x2003;" horiz-adv-x="1796" />
<glyph unicode="&#x2004;" horiz-adv-x="598" />
<glyph unicode="&#x2005;" horiz-adv-x="449" />
<glyph unicode="&#x2006;" horiz-adv-x="299" />
<glyph unicode="&#x2007;" horiz-adv-x="299" />
<glyph unicode="&#x2008;" horiz-adv-x="224" />
<glyph unicode="&#x2009;" horiz-adv-x="359" />
<glyph unicode="&#x200a;" horiz-adv-x="99" />
<glyph unicode="&#x2010;" horiz-adv-x="733" d="M61 535v104h611v-104h-611z" />
<glyph unicode="&#x2011;" horiz-adv-x="733" d="M61 535v104h611v-104h-611z" />
<glyph unicode="&#x2012;" horiz-adv-x="733" d="M61 535v104h611v-104h-611z" />
<glyph unicode="&#x2013;" horiz-adv-x="1024" d="M0 535v104h1024v-104h-1024z" />
<glyph unicode="&#x2014;" horiz-adv-x="2170" d="M61 535v104h2048v-104h-2048z" />
<glyph unicode="&#x2018;" horiz-adv-x="282" d="M57 1497v49h119v-170q0 -55 19 -116q16 -46 30 -89h-96q-72 152 -72 326z" />
<glyph unicode="&#x2019;" horiz-adv-x="282" d="M57 1171q53 141 54 205v170h114v-49q0 -186 -69 -326h-99z" />
<glyph unicode="&#x201a;" horiz-adv-x="544" d="M156 -250q14 45 30 88q18 61 19 117v172h119v-53q0 -172 -72 -324h-96z" />
<glyph unicode="&#x201c;" horiz-adv-x="557" d="M57 1497v49h119v-170q0 -55 19 -116q16 -46 30 -89h-96q-72 152 -72 326zM332 1497v49h119v-170q0 -55 18 -116q17 -46 31 -89h-97q-72 152 -71 326z" />
<glyph unicode="&#x201d;" horiz-adv-x="557" d="M57 1171q53 141 54 205v170h114v-49q0 -186 -69 -326h-99zM328 1171q53 141 53 205v170h115v-49q0 -190 -72 -326h-96z" />
<glyph unicode="&#x201e;" horiz-adv-x="557" d="M68 -250q16 45 32 88q18 61 19 117v172h117v-53q0 -180 -72 -324h-96zM342 -250q53 147 53 205v172h115v-53q0 -188 -72 -324h-96z" />
<glyph unicode="&#x2022;" horiz-adv-x="1003" d="M205 721q0 129 86 213t211 84t211 -82t86 -215q0 -125 -87 -210t-210 -85q-125 0 -211 83t-86 212z" />
<glyph unicode="&#x2026;" horiz-adv-x="2039" d="M242 0v156h145v-156h-145zM942 0v156h145v-156h-145zM1667 0v156h145v-156h-145z" />
<glyph unicode="&#x202f;" horiz-adv-x="359" />
<glyph unicode="&#x2039;" horiz-adv-x="518" d="M102 557l207 447l97 -35l-177 -412l174 -407l-94 -39z" />
<glyph unicode="&#x203a;" horiz-adv-x="518" d="M102 969l97 35l207 -447l-207 -446l-95 43l175 403z" />
<glyph unicode="&#x205f;" horiz-adv-x="449" />
<glyph unicode="&#x2122;" horiz-adv-x="1640" d="M61 1360v88h586v-88h-244v-639h-98v639h-244zM690 721v727h141l220 -649l249 649h136v-727h-99v598l-233 -598h-115l-205 602v-602h-94z" />
<glyph unicode="&#x25fc;" horiz-adv-x="1116" d="M0 0v1116h1116v-1116h-1116z" />
</font>
</defs></svg> 